﻿## Interface: 30300
## Title:|cffffd200Deadly Boss Mods|r |cff69ccf0Core|r
## Title-zhCN: |cffffd200Deadly Boss Mods|r |cff69ccf0核心|r
## Title-ruRU:|cffffd200Deadly Boss Mods|r |cff69ccf0Основной|r
## Title-zhTW:|cffffd200Deadly Boss Mods|r |cff69ccf0核心|r
## Title-koKR:|cffffd200Deadly Boss Mods|r |cff69ccf0핵심 모듈|r
## Title-esES:|cffffd200Deadly Boss Mods|r |cff69ccf0Proceso|r
## Title-esMX:|cffffd200Deadly Boss Mods|r |cff69ccf0Proceso|r
## Notes: Deadly Boss Mods
## SavedVariablesPerCharacter: DBM_SavedOptions, DBT_SavedOptions, DBM_saved_emotes
## LoadOnDemand: 0
## DefaultState: enabled
## Author: Tandanu and Nitram
## X-Website: http://www.deadlybossmods.com
localization.en.lua
localization.de.lua
localization.cn.lua
localization.ru.lua
localization.fr.lua
localization.tw.lua
localization.kr.lua
localization.es.lua
DBT-Template.xml
DBT.lua
DBM-Core.lua
DBM-Arrow.lua
DBM-RangeCheck.lua
DBM-BossHealth.lua
DBM-BossHealth.xml
